<?xml version="1.0" encoding="UTF-8" standalone="no"?>
<!-- Created with Inkscape (http://www.inkscape.org/) -->

<svg
   xmlns:dc="http://purl.org/dc/elements/1.1/"
   xmlns:cc="http://creativecommons.org/ns#"
   xmlns:rdf="http://www.w3.org/1999/02/22-rdf-syntax-ns#"
   xmlns:svg="http://www.w3.org/2000/svg"
   xmlns="http://www.w3.org/2000/svg"
   xmlns:sodipodi="http://sodipodi.sourceforge.net/DTD/sodipodi-0.dtd"
   xmlns:inkscape="http://www.inkscape.org/namespaces/inkscape"
   width="52.025604mm"
   height="41.565598mm"
   viewBox="0 0 184.34269 147.27967"
   id="svg11905"
   version="1.1"
   inkscape:version="0.91 r13725">
  <defs
     id="defs11907" />
  <sodipodi:namedview
     id="base"
     pagecolor="#ffffff"
     bordercolor="#666666"
     borderopacity="1.0"
     inkscape:pageopacity="0.0"
     inkscape:pageshadow="2"
     inkscape:zoom="1.979899"
     inkscape:cx="-6.4274736"
     inkscape:cy="68.263239"
     inkscape:document-units="px"
     inkscape:current-layer="layer1"
     showgrid="false"
     fit-margin-left="0"
     fit-margin-top="0"
     fit-margin-right="0"
     fit-margin-bottom="0"
     inkscape:window-width="1600"
     inkscape:window-height="837"
     inkscape:window-x="-8"
     inkscape:window-y="-8"
     inkscape:window-maximized="1" />
  <metadata
     id="metadata11910">
    <rdf:RDF>
      <cc:Work
         rdf:about="">
        <dc:format>image/svg+xml</dc:format>
        <dc:type
           rdf:resource="http://purl.org/dc/dcmitype/StillImage" />
        <dc:title></dc:title>
      </cc:Work>
    </rdf:RDF>
  </metadata>
  <g
     inkscape:label="Layer 1"
     inkscape:groupmode="layer"
     id="layer1"
     transform="translate(-99.257226,-481.5795)">
    <g
       transform="translate(-310.8647,19.448872)"
       id="g4245">
      <g
         id="g4211">
        <path
           style="opacity:1;fill:#000000;fill-opacity:1;stroke:#000000;stroke-width:4;stroke-linecap:round;stroke-linejoin:miter;stroke-miterlimit:10;stroke-dasharray:none;stroke-dashoffset:0;stroke-opacity:1"
           id="path4136-3-2"
           sodipodi:type="arc"
           sodipodi:cx="450.48486"
           sodipodi:cy="481.97058"
           sodipodi:rx="4.0406103"
           sodipodi:ry="4.0406103"
           sodipodi:start="0"
           sodipodi:end="6.2830631"
           sodipodi:open="true"
           d="m 454.52547,481.97058 a 4.0406103,4.0406103 0 0 1 -4.04048,4.04061 4.0406103,4.0406103 0 0 1 -4.04074,-4.04036 4.0406103,4.0406103 0 0 1 4.04024,-4.04086 4.0406103,4.0406103 0 0 1 4.04098,4.04012" />
        <path
           style="opacity:1;fill:#000000;fill-opacity:1;stroke:#000000;stroke-width:4;stroke-linecap:round;stroke-linejoin:miter;stroke-miterlimit:10;stroke-dasharray:none;stroke-dashoffset:0;stroke-opacity:1"
           id="path4136-5-7-0"
           sodipodi:type="arc"
           sodipodi:cx="551.58624"
           sodipodi:cy="580.27637"
           sodipodi:rx="4.0406103"
           sodipodi:ry="4.0406103"
           sodipodi:start="0"
           sodipodi:end="6.2830631"
           sodipodi:open="true"
           d="m 555.62685,580.27637 a 4.0406103,4.0406103 0 0 1 -4.04048,4.04061 4.0406103,4.0406103 0 0 1 -4.04074,-4.04037 4.0406103,4.0406103 0 0 1 4.04024,-4.04085 4.0406103,4.0406103 0 0 1 4.04098,4.04011" />
        <path
           style="opacity:1;fill:#000000;fill-opacity:1;stroke:#000000;stroke-width:4;stroke-linecap:round;stroke-linejoin:miter;stroke-miterlimit:10;stroke-dasharray:none;stroke-dashoffset:0;stroke-opacity:1"
           id="path4136-1-2-8"
           sodipodi:type="arc"
           sodipodi:cx="450.48486"
           sodipodi:cy="580.27637"
           sodipodi:rx="4.0406103"
           sodipodi:ry="4.0406103"
           sodipodi:start="0"
           sodipodi:end="6.2830631"
           sodipodi:open="true"
           d="m 454.52547,580.27637 a 4.0406103,4.0406103 0 0 1 -4.04048,4.04061 4.0406103,4.0406103 0 0 1 -4.04074,-4.04037 4.0406103,4.0406103 0 0 1 4.04024,-4.04085 4.0406103,4.0406103 0 0 1 4.04098,4.04011" />
      </g>
      <path
         inkscape:connector-curvature="0"
         id="path4216"
         d="m 450.02296,481.62602 0,98.99495 101.52033,0 z"
         style="fill:none;fill-rule:evenodd;stroke:#000000;stroke-width:1px;stroke-linecap:butt;stroke-linejoin:miter;stroke-opacity:1" />
    </g>
  </g>
</svg>
